[
  {
  "icon":  "home-outline",
  "name":  "inicio",
  "redirectTo": "/tabs/inicio"
},
{
  "icon":  "barbell-outline",
  "name":  "Rutinas",
  "redirectTo": "/tabs/rutinas"
},
{
  "icon":  "pulse-outline",
  "name":  "Datos",
  "redirectTo": "/tabs/datos"
},
{
  "icon":  "notifications-outline",
  "name":  "Notificaciones",
  "redirectTo": "/tabs/notificaciones"
},
{
  "icon":  "options-outline",
  "name":  "Configuraciones",
  "redirectTo": "/configuraciones"
}
]

